Geospatial data analysis in R
…
geo_sund <- geo_kommuner |> 
  group_by(sundreg) |> 
  summarize(population_sund = sum(population), 
            visueltcenter_x = mean(visueltcenter_x),
            visueltcenter_y = mean(visueltcenter_y))

print(geo_sund,n = 6)

Simple feature collection with 17 features and 4 fields
Geometry type: GEOMETRY
Dimension:     XY
Bounding box:  xmin: 8.07251 ymin: 54.55909 xmax: 15.19237 ymax: 57.75256
Geodetic CRS:  +proj=longlat +datum=WGS84 +no_defs
# A tibble: 17 × 5
  sundreg                 population_sund visueltcenter_x visueltcenter_y                                                                     geometry
  <chr>                             <dbl>           <dbl>           <dbl>                                                               <GEOMETRY [°]>
1 Aarhus                           356433           10.3             56.0 MULTIPOLYGON (((10.55698 55.86416, 10.55536 55.86444, 10.55267 55.8642, 10.…
2 Fyn                              460303           10.4             55.2 MULTIPOLYGON (((10.62951 54.98264, 10.6278 54.98376, 10.62358 54.98885, 10.…
3 Horsens                          225371            9.90            55.9 MULTIPOLYGON (((10.0706 55.83342, 10.06839 55.83409, 10.06703 55.83345, 10.…
4 Hovedstaden                      781454           13.8             55.5 MULTIPOLYGON (((14.77093 55.29822, 14.76954 55.29807, 14.76909 55.29686, 14…
5 Hovedstaden Nord                 461421           12.4             55.8 POLYGON ((12.58525 55.72267, 12.58661 55.72425, 12.58828 55.7249, 12.58884 …
6 Hovedstaden Syd og Vest          288043           12.4             55.6 MULTIPOLYGON (((12.67029 55.60658, 12.67349 55.60659, 12.67621 55.60728, 12…
# ℹ 11 more rows
…
